{
  "id": 123,
  "name": "Henry Smith",
  "age": 28,
  "salary": 2000,
  "designation": "Programmer",
  "address": {
    "street": "Park Avn.",
    "city": "Westchester",
    "zipCode": 10583
  },
  "phoneNumbers": [
    654321,
    222333
  ],
  "personalInformation": {
    "gender": "Male",
    "maritialstatus": "Married"
  }
}